Quantium Virtual Internship - Retail Strategy and Analytics - Task 1
…
Loading required package: viridisLite

options(repr.plot.width = 10, repr.plot.height = 6)

sales_summary <- data %>%
  group_by(LIFESTAGE, PREMIUM_CUSTOMER) %>%
  summarise(TOT_SALES_GROUPED = sum(TOT_SALES, na.rm = TRUE))

`summarise()` has grouped output by 'LIFESTAGE'. You can override using the
`.groups` argument.

sales_summary

# A tibble: 21 × 3
# Groups:   LIFESTAGE [7]
   LIFESTAGE              PREMIUM_CUSTOMER TOT_SALES_GROUPED
   <chr>                  <chr>                        <dbl>
 1 MIDAGE SINGLES/COUPLES Budget                      33346.
 2 MIDAGE SINGLES/COUPLES Mainstream                  84734.
 3 MIDAGE SINGLES/COUPLES Premium                     54444.
 4 NEW FAMILIES           Budget                      20607.
 5 NEW FAMILIES           Mainstream                  15980.
 6 NEW FAMILIES           Premium                     10761.
 7 OLDER FAMILIES         Budget                     156864.
 8 OLDER FAMILIES         Mainstream                  96414.
 9 OLDER FAMILIES         Premium                     75243.
10 OLDER SINGLES/COUPLES  Budget                     127834.
# ℹ 11 more rows
…
#### Number of customers by LIFESTAGE and PREMIUM_CUSTOMER
# Over to you! Calculate the summary of number of customers by those dimensions and create a plot.
options(repr.plot.width = 10, repr.plot.height = 6)

count_summary <- data %>%
  group_by(LIFESTAGE, PREMIUM_CUSTOMER) %>%
  summarise(NUM_IDS = n_distinct(LYLTY_CARD_NBR))

`summarise()` has grouped output by 'LIFESTAGE'. You can override using the
`.groups` argument.

count_summary

# A tibble: 21 × 3
# Groups:   LIFESTAGE [7]
   LIFESTAGE              PREMIUM_CUSTOMER NUM_IDS
   <chr>                  <chr>              <int>
 1 MIDAGE SINGLES/COUPLES Budget              1474
 2 MIDAGE SINGLES/COUPLES Mainstream          3298
 3 MIDAGE SINGLES/COUPLES Premium             2369
 4 NEW FAMILIES           Budget              1087
 5 NEW FAMILIES           Mainstream           830
 6 NEW FAMILIES           Premium              575
 7 OLDER FAMILIES         Budget              4611
 8 OLDER FAMILIES         Mainstream          2788
 9 OLDER FAMILIES         Premium             2231
10 OLDER SINGLES/COUPLES  Budget              4849
# ℹ 11 more rows
…
Let’s have a look at this next.

#### Average number of units per customer by LIFESTAGE and PREMIUM_CUSTOMER
# Over to you! Calculate and plot the average number of units per customer by those two dimensions.

priceperunit_summary <- data %>%
  group_by(LIFESTAGE, PREMIUM_CUSTOMER) %>%
  summarise(PROD_QTY_GROUPED = sum(PROD_QTY, na.rm = TRUE))

`summarise()` has grouped output by 'LIFESTAGE'. You can override using the
`.groups` argument.

priceperunit_summary

# A tibble: 21 × 3
# Groups:   LIFESTAGE [7]
   LIFESTAGE              PREMIUM_CUSTOMER PROD_QTY_GROUPED
   <chr>                  <chr>                       <int>
 1 MIDAGE SINGLES/COUPLES Budget                       8883
 2 MIDAGE SINGLES/COUPLES Mainstream                  21213
 3 MIDAGE SINGLES/COUPLES Premium                     14400
 4 NEW FAMILIES           Budget                       5241
 5 NEW FAMILIES           Mainstream                   4060
 6 NEW FAMILIES           Premium                      2769
 7 OLDER FAMILIES         Budget                      41853
 8 OLDER FAMILIES         Mainstream                  25804
 9 OLDER FAMILIES         Premium                     20239
10 OLDER SINGLES/COUPLES  Budget                      32883
# ℹ 11 more rows
…
In the density plots, there are more peaks in density on the lower end of the range of PACK_SIZE values for both customers under the segment Mainstream - young singles/couples and across the overall data. As such, while the target segment Mainstream - young singles/couples tends towards purchasing smaller packs of chips, this characteristic does not appear to be unique to the given segment. A similar result is also demonstrated in the item frequency plot ordered by PACK_SIZE.

library(viridis)

segment_summary <- data %>%
  group_by(LIFESTAGE, PREMIUM_CUSTOMER) %>%
  summarise(count = n(), .groups = "drop") %>%
  group_by(LIFESTAGE) %>%
  mutate(prop_within_lifestage = count / sum(count)) %>%
  group_by(PREMIUM_CUSTOMER) %>%
  mutate(prop_within_premium = count / sum(count)) %>%
  ungroup()
segment_summary

# A tibble: 21 × 5
   LIFESTAGE    PREMIUM_CUSTOMER count prop_within_lifestage prop_within_premium
   <chr>        <chr>            <int>                 <dbl>               <dbl>
 1 MIDAGE SING… Budget            4691                 0.200              0.0541
 2 MIDAGE SING… Mainstream       11095                 0.474              0.117 
 3 MIDAGE SING… Premium           7612                 0.325              0.117 
 4 NEW FAMILIES Budget            2824                 0.435              0.0325
 5 NEW FAMILIES Mainstream        2185                 0.336              0.0230
 6 NEW FAMILIES Premium           1488                 0.229              0.0229
 7 OLDER FAMIL… Budget           21514                 0.476              0.248 
 8 OLDER FAMIL… Mainstream       13241                 0.293              0.139 
 9 OLDER FAMIL… Premium          10403                 0.230              0.160 
10 OLDER SINGL… Budget           17172                 0.338              0.198 
# ℹ 11 more rows
…
